{"id":"11185349968","type":"CreateEvent","actor":{"id":13025337,"login":"bitnami-bot","display_login":"bitnami-bot","gravatar_id":"","url":"https://api.github.com/users/bitnami-bot","avatar_url":"https://avatars.githubusercontent.com/u/13025337?"},"repo":{"id":110563310,"name":"bitnami/bitnami-docker-python","url":"https://api.github.com/repos/bitnami/bitnami-docker-python"},"payload":{"ref":"3.8.1-debian-9-r10-prod","ref_type":"tag","master_branch":"master","description":"Bitnami Python Docker Image http://bitnami.com/docker","pusher_type":"user"},"public":true,"created_at":"2020-01-01T00:41:01Z","org":{"id":5446553,"login":"bitnami","gravatar_id":"","url":"https://api.github.com/orgs/bitnami","avatar_url":"https://avatars.githubusercontent.com/u/5446553?"}}
{"id":"11185349970","type":"CreateEvent","actor":{"id":29139614,"login":"renovate[bot]","display_login":"renovate","gravatar_id":"","url":"https://api.github.com/users/renovate[bot]","avatar_url":"https://avatars.githubusercontent.com/u/29139614?"},"repo":{"id":69679985,"name":"amilajack/eslint-plugin-compat","url":"https://api.github.com/repos/amilajack/eslint-plugin-compat"},"payload":{"ref":"renovate/semver-7.x","ref_type":"branch","master_branch":"master","description":"Lint the browser compatibility of your code","pusher_type":"user"},"public":true,"created_at":"2020-01-01T00:41:01Z"}
{"id":"11185349982","type":"PushEvent","actor":{"id":49699333,"login":"dependabot[bot]","display_login":"dependabot","gravatar_id":"","url":"https://api.github.com/users/dependabot[bot]","avatar_url":"https://avatars.githubusercontent.com/u/49699333?"},"repo":{"id":206577258,"name":"erfankashani/devcamp_portfolio","url":"https://api.github.com/repos/erfankashani/devcamp_portfolio"},"payload":{"push_id":4450652988,"size":3,"distinct_size":1,"ref":"refs/heads/dependabot/bundler/puma-3.12.2","head":"50272501e41fb95634019f9a225f5df206d37873","before":"7d396aa9286e0e96bc6e5bccdf5a9efe44fc9909","commits":[{"sha":"9a2c195648f2678a9721c413318652c7cd108a8a","author":{"name":"dependabot[bot]","email":"1c358da00a777d4e9898c1280ab801e2df165188@users.noreply.github.com"},"message":"Bump rack from 2.0.7 to 2.0.8\n\nBumps [rack](https://github.com/rack/rack) from 2.0.7 to 2.0.8.\n- [Release notes](https://github.com/rack/rack/releases)\n- [Changelog](https://github.com/rack/rack/blob/master/CHANGELOG.md)\n- [Commits](https://github.com/rack/rack/compare/2.0.7...2.0.8)\n\nSigned-off-by: dependabot[bot] <support@github.com>","distinct":false,"url":"https://api.github.com/repos/erfankashani/devcamp_portfolio/commits/9a2c195648f2678a9721c413318652c7cd108a8a"},{"sha":"1f687093e69ce6a77728687f25c44c49066fd9ea","author":{"name":"erfankashani","email":"cb373ccf2f8891aa48fbe087662477dd0b13bd06@gmail.com"},"message":"Merge pull request #4 from erfankashani/dependabot/bundler/rack-2.0.8\n\nBump rack from 2.0.7 to 2.0.8","distinct":false,"url":"https://api.github.com/repos/erfankashani/devcamp_portfolio/commits/1f687093e69ce6a77728687f25c44c49066fd9ea"},{"sha":"50272501e41fb95634019f9a225f5df206d37873","author":{"name":"dependabot[bot]","email":"1c358da00a777d4e9898c1280ab801e2df165188@users.noreply.github.com"},"message":"Bump puma from 3.12.1 to 3.12.2\n\nBumps [puma](https://github.com/puma/puma) from 3.12.1 to 3.12.2.\n- [Release notes](https://github.com/puma/puma/releases)\n- [Changelog](https://github.com/puma/puma/blob/master/History.md)\n- [Commits](https://github.com/puma/puma/compare/v3.12.1...v3.12.2)\n\nSigned-off-by: dependabot[bot] <support@github.com>","distinct":true,"url":"https://api.github.com/repos/erfankashani/devcamp_portfolio/commits/50272501e41fb95634019f9a225f5df206d37873"}]},"public":true,"created_at":"2020-01-01T00:41:01Z"}
{"id":"11185349988","type":"PushEvent","actor":{"id":2299951,"login":"pietroalbini","display_login":"pietroalbini","gravatar_id":"","url":"https://api.github.com/users/pietroalbini","avatar_url":"https://avatars.githubusercontent.com/u/2299951?"},"repo":{"id":26193547,"name":"rust-lang/crates.io-index","url":"https://api.github.com/repos/rust-lang/crates.io-index"},"payload":{"push_id":4450652992,"size":1,"distinct_size":1,"ref":"refs/heads/master","head":"7da92379e91d708323569780ce32a6aab29b0b76","before":"3a066faf940a423d1d47885a1de133e1313cb61c","commits":[{"sha":"7da92379e91d708323569780ce32a6aab29b0b76","author":{"name":"bors","email":"3a2c29237f73c7cf88424b80e427b1884f346b35@rust-lang.org"},"message":"Updating crate `protobuf#2.10.0`","distinct":true,"url":"https://api.github.com/repos/rust-lang/crates.io-index/commits/7da92379e91d708323569780ce32a6aab29b0b76"}]},"public":true,"created_at":"2020-01-01T00:41:02Z","org":{"id":5430905,"login":"rust-lang","gravatar_id":"","url":"https://api.github.com/orgs/rust-lang","avatar_url":"https://avatars.githubusercontent.com/u/5430905?"}}
{"id":"11185349989","type":"WatchEvent","actor":{"id":59098524,"login":"BrandonSMBDX","display_login":"BrandonSMBDX","gravatar_id":"","url":"https://api.github.com/users/BrandonSMBDX","avatar_url":"https://avatars.githubusercontent.com/u/59098524?"},"repo":{"id":219092855,"name":"TheBombSquad/GxUtils","url":"https://api.github.com/repos/TheBombSquad/GxUtils"},"payload":{"action":"started"},"public":true,"created_at":"2020-01-01T00:41:02Z"}
{"id":"11185349990","type":"PullRequestEvent","actor":{"id":29139614,"login":"renovate[bot]","display_login":"renovate","gravatar_id":"","url":"https://api.github.com/users/renovate[bot]","avatar_url":"https://avatars.githubusercontent.com/u/29139614?"},"repo":{"id":69679985,"name":"amilajack/eslint-plugin-compat","url":"https://api.github.com/repos/amilajack/eslint-plugin-compat"},"payload":{"action":"opened","number":283,"pull_request":{"url":"https://api.github.com/repos/amilajack/eslint-plugin-compat/pulls/283","id":358439119,"node_id":"MDExOlB1bGxSZXF1ZXN0MzU4NDM5MTE5","html_url":"https://github.com/amilajack/eslint-plugin-compat/pull/283","diff_url":"https://github.com/amilajack/eslint-plugin-compat/pull/283.diff","patch_url":"https://github.com/amilajack/eslint-plugin-compat/pull/283.patch","issue_url":"https://api.github.com/repos/amilajack/eslint-plugin-compat/issues/283","number":283,"state":"open","locked":false,"title":"fix(deps): update dependency semver to v7","user":{"login":"renovate[bot]","id":29139614,"node_id":"MDM6Qm90MjkxMzk2MTQ=","avatar_url":"https://avatars1.githubusercontent.com/in/2740?v=4","gravatar_id":"","url":"https://api.github.com/users/renovate%5Bbot%5D","html_url":"https://github.com/apps/renovate","followers_url":"https://api.github.com/users/renovate%5Bbot%5D/followers","following_url":"https://api.github.com/users/renovate%5Bbot%5D/following{/other_user}","gists_url":"https://api.github.com/users/renovate%5Bbot%5D/gists{/gist_id}","starred_url":"https://api.github.com/users/renovate%5Bbot%5D/starred{/owner}{/repo}","subscriptions_url":"https://api.github.com/users/renovate%5Bbot%5D/subscriptions","organizations_url":"https://api.github.com/users/renovate%5Bbot%5D/orgs","repos_url":"https://api.github.com/users/renovate%5Bbot%5D/repos","events_url":"https://api.github.com/users/renovate%5Bbot%5D/events{/privacy}","received_events_url":"https://api.github.com/users/renovate%5Bbot%5D/received_events","type":"Bot","site_admin":false},"body":"This PR contains the following updates:\n\n| Package | Type | Update | Change |\n|---|---|---|---|\n| [semver](https://togithub.com/npm/node-semver) | dependencies | major | [`^6.3.0` -> `^7.1.1`](https://renovatebot.com/diffs/npm/semver/6.3.0/7.1.1) |\n\n---\n\n### Release Notes\n\n<details>\n<summary>npm/node-semver</summary>\n\n### [`v7.1.1`](https://togithub.com/npm/node-semver/compare/v7.1.0...v7.1.1)\n\n[Compare Source](https://togithub.com/npm/node-semver/compare/v7.1.0...v7.1.1)\n\n### [`v7.1.0`](https://togithub.com/npm/node-semver/blob/master/CHANGELOG.md#&#8203;710)\n\n[Compare Source](https://togithub.com/npm/node-semver/compare/v7.0.0...v7.1.0)\n\n-   Add `require('semver/preload')` to load the entire module without using\n    lazy getter methods.\n\n### [`v7.0.0`](https://togithub.com/npm/node-semver/blob/master/CHANGELOG.md#&#8203;700)\n\n[Compare Source](https://togithub.com/npm/node-semver/compare/v6.3.0...v7.0.0)\n\n-   Refactor module into separate files for better tree-shaking\n-   Drop support for very old node versions, use const/let, `=>` functions,\n    and classes.\n\n</details>\n\n---\n\n### Renovate configuration\n\n:date: **Schedule**: \"before 3am on the first day of the month\" (UTC).\n\n:vertical_traffic_light: **Automerge**: Disabled by config. Please merge this manually once you are satisfied.\n\n:recycle: **Rebasing**: Whenever PR becomes conflicted, or if you modify the PR title to begin with \"`rebase!`\".\n\n:no_bell: **Ignore**: Close this PR and you won't be reminded about this update again.\n\n---\n\n - [ ] <!-- rebase-check -->If you want to rebase/retry this PR, check this box\n\n---\n\nNewsflash: Renovate has joined WhiteSource, and is now free for all use. [Learn more](https://renovate.whitesourcesoftware.com/blog/renovate-is-now-part-of-whitesource/) or view updated [terms](https://renovate.whitesourcesoftware.com/terms-of-service/) and [privacy](https://renovate.whitesourcesoftware.com/privacy-policy/) policies.","created_at":"2020-01-01T00:41:01Z","updated_at":"2020-01-01T00:41:01Z","closed_at":null,"merged_at":null,"merge_commit_sha":null,"assignee":null,"assignees":[],"requested_reviewers":[],"requested_teams":[],"labels":[],"milestone":null,"commits_url":"https://api.github.com/repos/amilajack/eslint-plugin-compat/pulls/283/commits","review_comments_url":"https://api.github.com/repos/amilajack/eslint-plugin-compat/pulls/283/comments","review_comment_url":"https://api.github.com/repos/amilajack/eslint-plugin-compat/pulls/comments{/number}","comments_url":"https://api.github.com/repos/amilajack/eslint-plugin-compat/issues/283/comments","statuses_url":"https://api.github.com/repos/amilajack/eslint-plugin-compat/statuses/e0dfc716ba2bd4316f7644125ee70deef5e10fe1","head":{"label":"amilajack:renovate/semver-7.x","ref":"renovate/semver-7.x","sha":"e0dfc716ba2bd4316f7644125ee70deef5e10fe1","user":{"login":"amilajack","id":6374832,"node_id":"MDQ6VXNlcjYzNzQ4MzI=","avatar_url":"https://avatars1.githubusercontent.com/u/6374832?v=4","gravatar_id":"","url":"https://api.github.com/users/amilajack","html_url":"https://github.com/amilajack","followers_url":"https://api.github.com/users/amilajack/followers","following_url":"https://api.github.com/users/amilajack/following{/other_user}","gists_url":"https://api.github.com/users/amilajack/gists{/gist_id}","starred_url":"https://api.github.com/users/amilajack/starred{/owner}{/repo}","subscriptions_url":"https://api.github.com/users/amilajack/subscriptions","organizations_url":"https://api.github.com/users/amilajack/orgs","repos_url":"https://api.github.com/users/amilajack/repos","events_url":"https://api.github.com/users/amilajack/events{/privacy}","received_events_url":"https://api.github.com/users/amilajack/received_events","type":"User","site_admin":false},"repo":{"id":69679985,"node_id":"MDEwOlJlcG9zaXRvcnk2OTY3OTk4NQ==","name":"eslint-plugin-compat","full_name":"amilajack/eslint-plugin-compat","private":false,"owner":{"login":"amilajack","id":6374832,"node_id":"MDQ6VXNlcjYzNzQ4MzI=","avatar_url":"https://avatars1.githubusercontent.com/u/6374832?v=4","gravatar_id":"","url":"https://api.github.com/users/amilajack","html_url":"https://github.com/amilajack","followers_url":"https://api.github.com/users/amilajack/followers","following_url":"https://api.github.com/users/amilajack/following{/other_user}","gists_url":"https://api.github.com/users/amilajack/gists{/gist_id}","starred_url":"https://api.github.com/users/amilajack/starred{/owner}{/repo}","subscriptions_url":"https://api.github.com/users/amilajack/subscriptions","organizations_url":"https://api.github.com/users/amilajack/orgs","repos_url":"https://api.github.com/users/amilajack/repos","events_url":"https://api.github.com/users/amilajack/events{/privacy}","received_events_url":"https://api.github.com/users/amilajack/received_events","type":"User","site_admin":false},"html_url":"https://github.com/amilajack/eslint-plugin-compat","description":"Lint the browser compatibility of your code","fork":false,"url":"https://api.github.com/repos/amilajack/eslint-plugin-compat","forks_url":"https://api.github.com/repos/amilajack/eslint-plugin-compat/forks","keys_url":"https://api.github.com/repos/amilajack/eslint-plugin-compat/keys{/key_id}","collaborators_url":"https://api.github.com/repos/amilajack/eslint-plugin-compat/collaborators{/collaborator}","teams_url":"https://api.github.com/repos/amilajack/eslint-plugin-compat/teams","hooks_url":"https://api.github.com/repos/amilajack/eslint-plugin-compat/hooks","issue_events_url":"https://api.github.com/repos/amilajack/eslint-plugin-compat/issues/events{/number}","events_url":"https://api.github.com/repos/amilajack/eslint-plugin-compat/events","assignees_url":"https://api.github.com/repos/amilajack/eslint-plugin-compat/assignees{/user}","branches_url":"https://api.github.com/repos/amilajack/eslint-plugin-compat/branches{/branch}","tags_url":"https://api.github.com/repos/amilajack/eslint-plugin-compat/tags","blobs_url":"https://api.github.com/repos/amilajack/eslint-plugin-compat/git/blobs{/sha}","git_tags_url":"https://api.github.com/repos/amilajack/eslint-plugin-compat/git/tags{/sha}","git_refs_url":"https://api.github.com/repos/amilajack/eslint-plugin-compat/git/refs{/sha}","trees_url":"https://api.github.com/repos/amilajack/eslint-plugin-compat/git/trees{/sha}","statuses_url":"https://api.github.com/repos/amilajack/eslint-plugin-compat/statuses/{sha}","languages_url":"https://api.github.com/repos/amilajack/eslint-plugin-compat/languages","stargazers_url":"https://api.github.com/repos/amilajack/eslint-plugin-compat/stargazers","contributors_url":"https://api.github.com/repos/amilajack/eslint-plugin-compat/contributors","subscribers_url":"https://api.github.com/repos/amilajack/eslint-plugin-compat/subscribers","subscription_url":"https://api.github.com/repos/amilajack/eslint-plugin-compat/subscription","commits_url":"https://api.github.com/repos/amilajack/eslint-plugin-compat/commits{/sha}","git_commits_url":"https://api.github.com/repos/amilajack/eslint-plugin-compat/git/commits{/sha}","comments_url":"https://api.github.com/repos/amilajack/eslint-plugin-compat/comments{/number}","issue_comment_url":"https://api.github.com/repos/amilajack/eslint-plugin-compat/issues/comments{/number}","contents_url":"https://api.github.com/repos/amilajack/eslint-plugin-compat/contents/{+path}","compare_url":"https://api.github.com/repos/amilajack/eslint-plugin-compat/compare/{base}...{head}","merges_url":"https://api.github.com/repos/amilajack/eslint-plugin-compat/merges","archive_url":"https://api.github.com/repos/amilajack/eslint-plugin-compat/{archive_format}{/ref}","downloads_url":"https://api.github.com/repos/amilajack/eslint-plugin-compat/downloads","issues_url":"https://api.github.com/repos/amilajack/eslint-plugin-compat/issues{/number}","pulls_url":"https://api.github.com/repos/amilajack/eslint-plugin-compat/pulls{/number}","milestones_url":"https://api.github.com/repos/amilajack/eslint-plugin-compat/milestones{/number}","notifications_url":"https://api.github.com/repos/amilajack/eslint-plugin-compat/notifications{?since,all,participating}","labels_url":"https://api.github.com/repos/amilajack/eslint-plugin-compat/labels{/name}","releases_url":"https://api.github.com/repos/amilajack/eslint-plugin-compat/releases{/id}","deployments_url":"https://api.github.com/repos/amilajack/eslint-plugin-compat/deployments","created_at":"2016-09-30T15:47:58Z","updated_at":"2019-12-31T00:36:34Z","pushed_at":"2020-01-01T00:41:00Z","git_url":"git://github.com/amilajack/eslint-plugin-compat.git","ssh_url":"git@github.com:amilajack/eslint-plugin-compat.git","clone_url":"https://github.com/amilajack/eslint-plugin-compat.git","svn_url":"https://github.com/amilajack/eslint-plugin-compat","homepage":"","size":6147,"stargazers_count":2340,"watchers_count":2340,"language":"JavaScript","has_issues":true,"has_projects":false,"has_downloads":true,"has_wiki":true,"has_pages":false,"forks_count":83,"mirror_url":null,"archived":false,"disabled":false,"open_issues_count":29,"license":{"key":"mit","name":"MIT License","spdx_id":"MIT","url":"https://api.github.com/licenses/mit","node_id":"MDc6TGljZW5zZTEz"},"forks":83,"open_issues":29,"watchers":2340,"default_branch":"master"}},"base":{"label":"amilajack:master","ref":"master","sha":"b76848ac6a86dd5fc2d6f44914602d3026e44d85","user":{"login":"amilajack","id":6374832,"node_id":"MDQ6VXNlcjYzNzQ4MzI=","avatar_url":"https://avatars1.githubusercontent.com/u/6374832?v=4","gravatar_id":"","url":"https://api.github.com/users/amilajack","html_url":"https://github.com/amilajack","followers_url":"https://api.github.com/users/amilajack/followers","following_url":"https://api.github.com/users/amilajack/following{/other_user}","gists_url":"https://api.github.com/users/amilajack/gists{/gist_id}","starred_url":"https://api.github.com/users/amilajack/starred{/owner}{/repo}","subscriptions_url":"https://api.github.com/users/amilajack/subscriptions","organizations_url":"https://api.github.com/users/amilajack/orgs","repos_url":"https://api.github.com/users/amilajack/repos","events_url":"https://api.github.com/users/amilajack/events{/privacy}","received_events_url":"https://api.github.com/users/amilajack/received_events","type":"User","site_admin":false},"repo":{"id":69679985,"node_id":"MDEwOlJlcG9zaXRvcnk2OTY3OTk4NQ==","name":"eslint-plugin-compat","full_name":"amilajack/eslint-plugin-compat","private":false,"owner":{"login":"amilajack","id":6374832,"node_id":"MDQ6VXNlcjYzNzQ4MzI=","avatar_url":"https://avatars1.githubusercontent.com/u/6374832?v=4","gravatar_id":"","url":"https://api.github.com/users/amilajack","html_url":"https://github.com/amilajack","followers_url":"https://api.github.com/users/amilajack/followers","following_url":"https://api.github.com/users/amilajack/following{/other_user}","gists_url":"https://api.github.com/users/amilajack/gists{/gist_id}","starred_url":"https://api.github.com/users/amilajack/starred{/owner}{/repo}","subscriptions_url":"https://api.github.com/users/amilajack/subscriptions","organizations_url":"https://api.github.com/users/amilajack/orgs","repos_url":"https://api.github.com/users/amilajack/repos","events_url":"https://api.github.com/users/amilajack/events{/privacy}","received_events_url":"https://api.github.com/users/amilajack/received_events","type":"User","site_admin":false},"html_url":"https://github.com/amilajack/eslint-plugin-compat","description":"Lint the browser compatibility of your code","fork":false,"url":"https://api.github.com/repos/amilajack/eslint-plugin-compat","forks_url":"https://api.github.com/repos/amilajack/eslint-plugin-compat/forks","keys_url":"https://api.github.com/repos/amilajack/eslint-plugin-compat/keys{/key_id}","collaborators_url":"https://api.github.com/repos/amilajack/eslint-plugin-compat/collaborators{/collaborator}","teams_url":"https://api.github.com/repos/amilajack/eslint-plugin-compat/teams","hooks_url":"https://api.github.com/repos/amilajack/eslint-plugin-compat/hooks","issue_events_url":"https://api.github.com/repos/amilajack/eslint-plugin-compat/issues/events{/number}","events_url":"https://api.github.com/repos/amilajack/eslint-plugin-compat/events","assignees_url":"https://api.github.com/repos/amilajack/eslint-plugin-compat/assignees{/user}","branches_url":"https://api.github.com/repos/amilajack/eslint-plugin-compat/branches{/branch}","tags_url":"https://api.github.com/repos/amilajack/eslint-plugin-compat/tags","blobs_url":"https://api.github.com/repos/amilajack/eslint-plugin-compat/git/blobs{/sha}","git_tags_url":"https://api.github.com/repos/amilajack/eslint-plugin-compat/git/tags{/sha}","git_refs_url":"https://api.github.com/repos/amilajack/eslint-plugin-compat/git/refs{/sha}","trees_url":"https://api.github.com/repos/amilajack/eslint-plugin-compat/git/trees{/sha}","statuses_url":"https://api.github.com/repos/amilajack/eslint-plugin-compat/statuses/{sha}","languages_url":"https://api.github.com/repos/amilajack/eslint-plugin-compat/languages","stargazers_url":"https://api.github.com/repos/amilajack/eslint-plugin-compat/stargazers","contributors_url":"https://api.github.com/repos/amilajack/eslint-plugin-compat/contributors","subscribers_url":"https://api.github.com/repos/amilajack/eslint-plugin-compat/subscribers","subscription_url":"https://api.github.com/repos/amilajack/eslint-plugin-compat/subscription","commits_url":"https://api.github.com/repos/amilajack/eslint-plugin-compat/commits{/sha}","git_commits_url":"https://api.github.com/repos/amilajack/eslint-plugin-compat/git/commits{/sha}","comments_url":"https://api.github.com/repos/amilajack/eslint-plugin-compat/comments{/number}","issue_comment_url":"https://api.github.com/repos/amilajack/eslint-plugin-compat/issues/comments{/number}","contents_url":"https://api.github.com/repos/amilajack/eslint-plugin-compat/contents/{+path}","compare_url":"https://api.github.com/repos/amilajack/eslint-plugin-compat/compare/{base}...{head}","merges_url":"https://api.github.com/repos/amilajack/eslint-plugin-compat/merges","archive_url":"https://api.github.com/repos/amilajack/eslint-plugin-compat/{archive_format}{/ref}","downloads_url":"https://api.github.com/repos/amilajack/eslint-plugin-compat/downloads","issues_url":"https://api.github.com/repos/amilajack/eslint-plugin-compat/issues{/number}","pulls_url":"https://api.github.com/repos/amilajack/eslint-plugin-compat/pulls{/number}","milestones_url":"https://api.github.com/repos/amilajack/eslint-plugin-compat/milestones{/number}","notifications_url":"https://api.github.com/repos/amilajack/eslint-plugin-compat/notifications{?since,all,participating}","labels_url":"https://api.github.com/repos/amilajack/eslint-plugin-compat/labels{/name}","releases_url":"https://api.github.com/repos/amilajack/eslint-plugin-compat/releases{/id}","deployments_url":"https://api.github.com/repos/amilajack/eslint-plugin-compat/deployments","created_at":"2016-09-30T15:47:58Z","updated_at":"2019-12-31T00:36:34Z","pushed_at":"2020-01-01T00:41:00Z","git_url":"git://github.com/amilajack/eslint-plugin-compat.git","ssh_url":"git@github.com:amilajack/eslint-plugin-compat.git","clone_url":"https://github.com/amilajack/eslint-plugin-compat.git","svn_url":"https://github.com/amilajack/eslint-plugin-compat","homepage":"","size":6147,"stargazers_count":2340,"watchers_count":2340,"language":"JavaScript","has_issues":true,"has_projects":false,"has_downloads":true,"has_wiki":true,"has_pages":false,"forks_count":83,"mirror_url":null,"archived":false,"disabled":false,"open_issues_count":29,"license":{"key":"mit","name":"MIT License","spdx_id":"MIT","url":"https://api.github.com/licenses/mit","node_id":"MDc6TGljZW5zZTEz"},"forks":83,"open_issues":29,"watchers":2340,"default_branch":"master"}},"_links":{"self":{"href":"https://api.github.com/repos/amilajack/eslint-plugin-compat/pulls/283"},"html":{"href":"https://github.com/amilajack/eslint-plugin-compat/pull/283"},"issue":{"href":"https://api.github.com/repos/amilajack/eslint-plugin-compat/issues/283"},"comments":{"href":"https://api.github.com/repos/amilajack/eslint-plugin-compat/issues/283/comments"},"review_comments":{"href":"https://api.github.com/repos/amilajack/eslint-plugin-compat/pulls/283/comments"},"review_comment":{"href":"https://api.github.com/repos/amilajack/eslint-plugin-compat/pulls/comments{/number}"},"commits":{"href":"https://api.github.com/repos/amilajack/eslint-plugin-compat/pulls/283/commits"},"statuses":{"href":"https://api.github.com/repos/amilajack/eslint-plugin-compat/statuses/e0dfc716ba2bd4316f7644125ee70deef5e10fe1"}},"author_association":"CONTRIBUTOR","merged":false,"mergeable":null,"rebaseable":null,"mergeable_state":"unknown","merged_by":null,"comments":0,"review_comments":0,"maintainer_can_modify":false,"commits":1,"additions":11,"deletions":6,"changed_files":2}},"public":true,"created_at":"2020-01-01T00:41:02Z"}
{"id":"11185349993","type":"PushEvent","actor":{"id":33914892,"login":"kevtan","display_login":"kevtan","gravatar_id":"","url":"https://api.github.com/users/kevtan","avatar_url":"https://avatars.githubusercontent.com/u/33914892?"},"repo":{"id":200007561,"name":"kevtan/prototype-react","url":"https://api.github.com/repos/kevtan/prototype-react"},"payload":{"push_id":4450652995,"size":2,"distinct_size":1,"ref":"refs/heads/master","head":"fdbf5d0ef4040bb6b7eeb41fc48bcf57c10df532","before":"6b426ac84531221df1725dea51f2fae43b08cf19","commits":[{"sha":"08e36339a51e4473a71adb7dac0f82132b751f91","author":{"name":"dependabot[bot]","email":"1c358da00a777d4e9898c1280ab801e2df165188@users.noreply.github.com"},"message":"Bump handlebars from 4.1.2 to 4.5.3\n\nBumps [handlebars](https://github.com/wycats/handlebars.js) from 4.1.2 to 4.5.3.\n- [Release notes](https://github.com/wycats/handlebars.js/releases)\n- [Changelog](https://github.com/wycats/handlebars.js/blob/master/release-notes.md)\n- [Commits](https://github.com/wycats/handlebars.js/compare/v4.1.2...v4.5.3)\n\nSigned-off-by: dependabot[bot] <support@github.com>","distinct":false,"url":"https://api.github.com/repos/kevtan/prototype-react/commits/08e36339a51e4473a71adb7dac0f82132b751f91"},{"sha":"fdbf5d0ef4040bb6b7eeb41fc48bcf57c10df532","author":{"name":"Kevin Tan","email":"f33f3d4bf38d956f77fd632033bf0e7a13e95df2@users.noreply.github.com"},"message":"Merge pull request #2 from kevtan/dependabot/npm_and_yarn/handlebars-4.5.3\n\nBump handlebars from 4.1.2 to 4.5.3","distinct":true,"url":"https://api.github.com/repos/kevtan/prototype-react/commits/fdbf5d0ef4040bb6b7eeb41fc48bcf57c10df532"}]},"public":true,"created_at":"2020-01-01T00:41:02Z"}
{"id":"11185349995","type":"PushEvent","actor":{"id":25211804,"login":"mykle1","display_login":"mykle1","gravatar_id":"","url":"https://api.github.com/users/mykle1","avatar_url":"https://avatars.githubusercontent.com/u/25211804?"},"repo":{"id":116679602,"name":"mykle1/Hello-Lucy-Original-Deprecated","url":"https://api.github.com/repos/mykle1/Hello-Lucy-Original-Deprecated"},"payload":{"push_id":4450652993,"size":1,"distinct_size":1,"ref":"refs/heads/master","head":"44d2680c272223b3a9e037171178fa16af0ce9a9","before":"e93c94ac403ed954c9743ff4bea36dbbbf9ffe06","commits":[{"sha":"44d2680c272223b3a9e037171178fa16af0ce9a9","author":{"name":"Mykle","email":"23c2c5483c43e406abe658ae9ab76dd34c2f6ff4@users.noreply.github.com"},"message":"Delete README.md","distinct":true,"url":"https://api.github.com/repos/mykle1/Hello-Lucy-Original-Deprecated/commits/44d2680c272223b3a9e037171178fa16af0ce9a9"}]},"public":true,"created_at":"2020-01-01T00:41:02Z"}
{"id":"11185349996","type":"PushEvent","actor":{"id":43708959,"login":"AlanTellezS","display_login":"AlanTellezS","gravatar_id":"","url":"https://api.github.com/users/AlanTellezS","avatar_url":"https://avatars.githubusercontent.com/u/43708959?"},"repo":{"id":182466281,"name":"AlanTellezS/pucpuc-bot","url":"https://api.github.com/repos/AlanTellezS/pucpuc-bot"},"payload":{"push_id":4450652997,"size":1,"distinct_size":1,"ref":"refs/heads/master","head":"9fa8fbe17fe4c31340d584abf5feac8ca64a388d","before":"405311fd7753af94f6802315ef5ce422d9d29a14","commits":[{"sha":"9fa8fbe17fe4c31340d584abf5feac8ca64a388d","author":{"name":"AlanTellezS","email":"36d83030144413dc7c28dffd394da1995116bea5@users.noreply.github.com"},"message":"123","distinct":true,"url":"https://api.github.com/repos/AlanTellezS/pucpuc-bot/commits/9fa8fbe17fe4c31340d584abf5feac8ca64a388d"}]},"public":true,"created_at":"2020-01-01T00:41:02Z"}
{"id":"11185350000","type":"PushEvent","actor":{"id":25271900,"login":"Tyler-Duckworth","display_login":"Tyler-Duckworth","gravatar_id":"","url":"https://api.github.com/users/Tyler-Duckworth","avatar_url":"https://avatars.githubusercontent.com/u/25271900?"},"repo":{"id":160000793,"name":"Tyler-Duckworth/tyler-duckworth.github.io","url":"https://api.github.com/repos/Tyler-Duckworth/tyler-duckworth.github.io"},"payload":{"push_id":4450653001,"size":1,"distinct_size":1,"ref":"refs/heads/src","head":"8aedcb992a5b036efe70bef24717423d4a1ff405","before":"3f90ed7b6f9917119528064e9e5e7214f9b8b29e","commits":[{"sha":"8aedcb992a5b036efe70bef24717423d4a1ff405","author":{"name":"tyler.devtcn@gmail.com","email":"edfeed339c9bc5149cb98aa5561c586085e69e59@gmail.com"},"message":"added twitter config v1","distinct":true,"url":"https://api.github.com/repos/Tyler-Duckworth/tyler-duckworth.github.io/commits/8aedcb992a5b036efe70bef24717423d4a1ff405"}]},"public":true,"created_at":"2020-01-01T00:41:02Z"}
